{
"type": "FeatureCollection",
"name": "Standalone_senriosec_2020",
"crs": { "type": "name", "properties": { "name": "urn:ogc:def:crs:EPSG::3111" } },
"features": [
{ "type": "Feature", "properties": { "School_Name": "Point Cook South Senior Secondary College", "Campus_Name": "Point Cook Senior Secondary College", "ENTITY_CODE": 1824601, "Year_Level": "10 to 12", "Boundary_Year": "2020" }, "geometry": { "type": "Polygon", "coordinates": [ [ [ 2482265.61, 2398622.88 ], [ 2482302.36, 2397569.85 ], [ 2481779.25, 2397104.38 ], [ 2480090.85, 2396864.49 ], [ 2479040.16, 2396002.07 ], [ 2476848.42, 2395377.21 ], [ 2473781.82, 2392163.97 ], [ 2473746.36, 2392156.65 ], [ 2473867.2, 2394910.92 ], [ 2476941.51, 2400038.59 ], [ 2482265.61, 2398622.88 ] ] ] } },
{ "type": "Feature", "properties": { "School_Name": "Hallam Senior Secondary College", "Campus_Name": "Hallam Senior Secondary College", "ENTITY_CODE": 1886801, "Year_Level": "11 to 12", "Boundary_Year": "2020" }, "geometry": { "type": "Polygon", "coordinates": [ [ [ 2524120.83, 2387006.92 ], [ 2519152.11, 2387167.98 ], [ 2521336.59, 2391482.52 ], [ 2524670.67, 2389885.86 ], [ 2524120.83, 2387006.92 ] ] ] } },
{ "type": "Feature", "properties": { "School_Name": "Swinburne Senior Secondary College", "Campus_Name": "Swinburne Senior Secondary College", "ENTITY_CODE": 1736601, "Year_Level": "11 to 12", "Boundary_Year": "2020" }, "geometry": { "type": "Polygon", "coordinates": [ [ [ 2501595.21, 2407286.26 ], [ 2502412.74, 2411595.27 ], [ 2505389.91, 2409663.44 ], [ 2504915.91, 2407952.55 ], [ 2501595.21, 2407286.26 ] ] ] } },
{ "type": "Feature", "properties": { "School_Name": "Box Hill Senior Secondary College", "Campus_Name": "Box Hill Senior Secondary College", "ENTITY_CODE": 1705001, "Year_Level": "11 to 12", "Boundary_Year": "2020" }, "geometry": { "type": "Polygon", "coordinates": [ [ [ 2509628.94, 2407103.94 ], [ 2509411.65, 2407130.92 ], [ 2507785.05, 2409548.15 ], [ 2508600.78, 2411540.11 ], [ 2511142.77, 2409919.13 ], [ 2509628.94, 2407103.94 ] ] ] } },
{ "type": "Feature", "properties": { "School_Name": "Northern College of the Arts and Technology", "Campus_Name": "Northern College of the Arts and Technology", "ENTITY_CODE": 1730001, "Year_Level": "10 to 12", "Boundary_Year": "2020" }, "geometry": { "type": "Polygon", "coordinates": [ [ [ 2504350.74, 2416945.35 ], [ 2501489.13, 2416968.0 ], [ 2501258.58, 2419092.18 ], [ 2503646.94, 2418622.8 ], [ 2504350.74, 2416945.35 ] ] ] } },
{ "type": "Feature", "properties": { "School_Name": "Wodonga Senior Secondary College", "Campus_Name": "Wodonga Senior Secondary College", "ENTITY_CODE": 1848001, "Year_Level": "10 to 12", "Boundary_Year": "2020" }, "geometry": { "type": "Polygon", "coordinates": [ [ [ 2651296.14, 2605833.9 ], [ 2652116.94, 2605059.65 ], [ 2652747.24, 2605772.68 ], [ 2652264.36, 2606224.24 ], [ 2653872.24, 2605599.3 ], [ 2653989.39, 2606317.03 ], [ 2654701.5, 2606638.15 ], [ 2655200.37, 2606378.53 ], [ 2656067.01, 2606910.01 ], [ 2656159.92, 2606614.07 ], [ 2655759.78, 2606285.84 ], [ 2656355.31, 2605483.83 ], [ 2655953.91, 2605093.13 ], [ 2656024.17, 2604434.3 ], [ 2656406.34, 2604192.21 ], [ 2656767.42, 2604520.97 ], [ 2657190.42, 2604220.89 ], [ 2657666.22, 2604867.99 ], [ 2657962.23, 2604810.88 ], [ 2657466.9, 2603806.9 ], [ 2657496.6, 2602791.72 ], [ 2657994.3, 2602763.03 ], [ 2658211.74, 2602968.87 ], [ 2657940.57, 2603349.36 ], [ 2658423.45, 2603330.67 ], [ 2658214.86, 2603689.14 ], [ 2658807.81, 2603766.87 ], [ 2658541.32, 2603223.15 ], [ 2658769.05, 2602918.15 ], [ 2659197.18, 2603296.35 ], [ 2659292.01, 2602948.93 ], [ 2659942.14, 2602890.18 ], [ 2660430.93, 2602294.68 ], [ 2660528.55, 2602796.97 ], [ 2661076.26, 2602863.72 ], [ 2660998.5, 2602303.93 ], [ 2661812.79, 2602199.64 ], [ 2662022.73, 2602477.47 ], [ 2661558.15, 2602652.1 ], [ 2661662.85, 2602920.47 ], [ 2662200.3, 2602927.24 ], [ 2662505.1, 2603289.99 ], [ 2662737.75, 2602648.62 ], [ 2663468.28, 2602269.94 ], [ 2663318.79, 2601868.14 ], [ 2663784.3, 2601882.45 ], [ 2663435.04, 2601544.2 ], [ 2663577.21, 2601166.28 ], [ 2664413.64, 2601544.8 ], [ 2664247.32, 2601056.04 ], [ 2664595.56, 2600772.49 ], [ 2664023.25, 2599962.0 ], [ 2664371.37, 2599531.51 ], [ 2665151.91, 2599821.11 ], [ 2665419.24, 2600256.84 ], [ 2666302.98, 2599743.17 ], [ 2666744.13, 2600021.88 ], [ 2667236.82, 2599900.72 ], [ 2668028.25, 2600565.66 ], [ 2667951.93, 2601218.46 ], [ 2668676.13, 2601113.19 ], [ 2669347.59, 2599572.11 ], [ 2671673.19, 2599885.62 ], [ 2671369.98, 2599597.82 ], [ 2671627.95, 2599160.13 ], [ 2671391.4, 2598330.6 ], [ 2671850.76, 2598191.88 ], [ 2672163.0, 2597623.98 ], [ 2671571.07, 2597414.57 ], [ 2671704.51, 2596945.98 ], [ 2672312.07, 2596717.32 ], [ 2672677.14, 2597234.97 ], [ 2673222.84, 2597205.26 ], [ 2673006.66, 2598059.55 ], [ 2673524.31, 2598408.88 ], [ 2673736.29, 2598212.32 ], [ 2673562.2, 2597498.51 ], [ 2674987.38, 2596324.88 ], [ 2675789.31, 2596917.3 ], [ 2675449.11, 2597870.05 ], [ 2675750.46, 2598067.84 ], [ 2675638.56, 2598742.72 ], [ 2676369.54, 2598958.5 ], [ 2676054.81, 2599265.3 ], [ 2676437.64, 2599770.57 ], [ 2676266.28, 2600473.57 ], [ 2676670.53, 2599996.82 ], [ 2676914.97, 2600201.8 ], [ 2677162.5, 2599839.39 ], [ 2677663.98, 2599990.95 ], [ 2678213.61, 2598577.57 ], [ 2678657.28, 2598691.34 ], [ 2679305.64, 2599548.19 ], [ 2681482.86, 2599163.38 ], [ 2681304.6, 2597392.72 ], [ 2681649.81, 2597250.63 ], [ 2682040.59, 2597989.63 ], [ 2683120.62, 2596145.47 ], [ 2683878.72, 2596699.4 ], [ 2683969.05, 2597276.59 ], [ 2684739.24, 2597026.86 ], [ 2684995.17, 2597303.13 ], [ 2684788.8, 2598735.07 ], [ 2685464.16, 2598819.24 ], [ 2685293.88, 2599409.55 ], [ 2685773.52, 2599757.17 ], [ 2685476.55, 2600466.49 ], [ 2685702.12, 2601516.93 ], [ 2686080.48, 2601188.91 ], [ 2686321.29, 2602064.4 ], [ 2686936.62, 2601729.76 ], [ 2687592.15, 2602544.59 ], [ 2687356.56, 2602651.15 ], [ 2688085.74, 2602700.79 ], [ 2688248.25, 2603229.48 ], [ 2688703.98, 2602858.42 ], [ 2688402.93, 2603753.17 ], [ 2688610.89, 2603889.01 ], [ 2688871.29, 2603531.55 ], [ 2688841.89, 2604333.7 ], [ 2689406.25, 2605090.59 ], [ 2688741.75, 2605247.34 ], [ 2688472.83, 2605652.79 ], [ 2689088.73, 2605795.44 ], [ 2688953.82, 2606944.49 ], [ 2689262.85, 2606519.52 ], [ 2689707.18, 2607186.51 ], [ 2689078.68, 2607258.28 ], [ 2689005.33, 2607519.21 ], [ 2689974.18, 2607337.82 ], [ 2689753.38, 2608121.09 ], [ 2690492.55, 2607780.86 ], [ 2690237.43, 2608526.65 ], [ 2690677.14, 2608822.3 ], [ 2690989.95, 2608590.75 ], [ 2691250.35, 2608993.93 ], [ 2692050.72, 2606057.86 ], [ 2693093.43, 2605453.62 ], [ 2693178.21, 2604560.49 ], [ 2693641.8, 2605175.97 ], [ 2694312.84, 2604777.32 ], [ 2694967.02, 2605251.27 ], [ 2697067.68, 2604316.65 ], [ 2697329.43, 2603850.24 ], [ 2697863.85, 2603931.43 ], [ 2698620.45, 2603251.18 ], [ 2698582.98, 2603238.63 ], [ 2698347.69, 2603358.34 ], [ 2697576.99, 2603384.74 ], [ 2697498.78, 2603492.34 ], [ 2696649.03, 2604265.07 ], [ 2695089.15, 2603932.02 ], [ 2694555.93, 2603603.37 ], [ 2694115.11, 2603658.21 ], [ 2693960.61, 2603248.11 ], [ 2693953.8, 2603218.2 ], [ 2693846.16, 2602308.19 ], [ 2693910.57, 2602091.04 ], [ 2693877.33, 2601105.86 ], [ 2693773.08, 2600932.97 ], [ 2693811.84, 2600737.8 ], [ 2693781.18, 2600693.42 ], [ 2693777.19, 2600652.42 ], [ 2693536.05, 2600296.07 ], [ 2693646.54, 2600070.03 ], [ 2693679.15, 2600012.15 ], [ 2693224.86, 2599839.34 ], [ 2692555.53, 2599898.92 ], [ 2692416.0, 2599909.68 ], [ 2692368.18, 2599929.12 ], [ 2691991.02, 2599655.16 ], [ 2691730.23, 2599575.76 ], [ 2691471.12, 2599366.97 ], [ 2691216.84, 2599069.9 ], [ 2691350.64, 2598329.03 ], [ 2690908.56, 2597690.88 ], [ 2690855.34, 2597539.8 ], [ 2690855.58, 2597531.64 ], [ 2690934.06, 2597230.51 ], [ 2691337.08, 2596686.96 ], [ 2691357.45, 2596675.67 ], [ 2691615.09, 2596655.94 ], [ 2691682.47, 2596682.16 ], [ 2692220.88, 2596248.38 ], [ 2692225.14, 2596236.28 ], [ 2691894.03, 2595588.81 ], [ 2691876.33, 2595459.09 ], [ 2691720.9, 2595041.03 ], [ 2691732.48, 2594751.03 ], [ 2691659.76, 2594685.97 ], [ 2691324.51, 2594572.53 ], [ 2691190.65, 2594274.65 ], [ 2690505.24, 2593721.57 ], [ 2690268.03, 2593730.84 ], [ 2689064.79, 2593223.7 ], [ 2689042.62, 2593208.76 ], [ 2689031.31, 2593172.11 ], [ 2688986.13, 2592932.64 ], [ 2689040.97, 2592197.09 ], [ 2689026.96, 2592177.87 ], [ 2688984.18, 2591734.83 ], [ 2688946.32, 2591693.42 ], [ 2688717.18, 2591508.94 ], [ 2688069.78, 2590785.24 ], [ 2687985.6, 2590742.37 ], [ 2687910.63, 2590656.75 ], [ 2685395.94, 2589577.71 ], [ 2685396.18, 2589573.19 ], [ 2685476.94, 2588997.61 ], [ 2685586.14, 2588642.16 ], [ 2685591.03, 2588629.11 ], [ 2685409.59, 2588525.13 ], [ 2684982.18, 2588013.49 ], [ 2682896.28, 2586106.18 ], [ 2683493.88, 2585721.72 ], [ 2683683.18, 2585417.65 ], [ 2683775.91, 2585144.49 ], [ 2683440.54, 2584848.86 ], [ 2682953.91, 2584304.74 ], [ 2682912.36, 2584215.86 ], [ 2682695.88, 2584001.34 ], [ 2682595.02, 2583782.11 ], [ 2682474.78, 2583744.92 ], [ 2682284.43, 2583753.26 ], [ 2682174.66, 2583721.78 ], [ 2681354.34, 2582415.63 ], [ 2681316.51, 2582394.49 ], [ 2681218.38, 2582369.2 ], [ 2681192.28, 2581900.8 ], [ 2681191.62, 2581898.36 ], [ 2681170.11, 2581607.47 ], [ 2681101.83, 2581474.26 ], [ 2681082.51, 2581455.3 ], [ 2680900.05, 2581093.53 ], [ 2680830.54, 2580976.59 ], [ 2680746.39, 2580884.24 ], [ 2680666.38, 2580816.4 ], [ 2680604.7, 2580784.72 ], [ 2680570.11, 2580769.5 ], [ 2680515.66, 2580626.2 ], [ 2680541.76, 2580545.09 ], [ 2680562.7, 2580487.97 ], [ 2680457.04, 2580429.26 ], [ 2680427.43, 2580387.51 ], [ 2680430.19, 2580330.24 ], [ 2680525.44, 2580279.09 ], [ 2680520.04, 2580247.57 ], [ 2680573.95, 2580092.31 ], [ 2680514.28, 2580060.24 ], [ 2680229.13, 2580089.37 ], [ 2680216.65, 2580087.86 ], [ 2680136.07, 2579769.24 ], [ 2680091.67, 2579757.59 ], [ 2679416.91, 2579939.82 ], [ 2679475.92, 2579647.49 ], [ 2679902.1, 2579253.49 ], [ 2679936.9, 2579010.67 ], [ 2679909.15, 2578966.47 ], [ 2679649.53, 2578853.58 ], [ 2679320.13, 2578839.42 ], [ 2679346.56, 2578393.98 ], [ 2679282.81, 2578261.62 ], [ 2678968.08, 2578101.12 ], [ 2678964.48, 2577907.24 ], [ 2678967.96, 2577900.4 ], [ 2678952.42, 2577807.34 ], [ 2678538.87, 2577480.06 ], [ 2678384.34, 2577463.28 ], [ 2678356.32, 2577411.7 ], [ 2678347.74, 2577282.54 ], [ 2678238.66, 2577002.37 ], [ 2678345.28, 2576511.65 ], [ 2678007.72, 2576265.13 ], [ 2677980.42, 2576186.1 ], [ 2678019.27, 2575934.82 ], [ 2678166.48, 2575713.18 ], [ 2678169.03, 2575543.53 ], [ 2677900.44, 2575309.63 ], [ 2677947.18, 2574965.49 ], [ 2678137.62, 2574787.11 ], [ 2678233.17, 2574749.11 ], [ 2678248.86, 2574734.16 ], [ 2678116.17, 2574508.65 ], [ 2678125.56, 2573916.06 ], [ 2678064.12, 2573747.63 ], [ 2677386.99, 2573631.6 ], [ 2677216.08, 2573478.3 ], [ 2677196.4, 2573410.32 ], [ 2676610.74, 2573377.2 ], [ 2676408.3, 2573266.65 ], [ 2675727.21, 2573294.65 ], [ 2675555.46, 2573220.97 ], [ 2675448.03, 2573271.59 ], [ 2674981.83, 2573748.86 ], [ 2674747.86, 2574345.12 ], [ 2674710.42, 2574517.88 ], [ 2674742.79, 2574792.28 ], [ 2674735.23, 2574823.28 ], [ 2674581.63, 2574982.71 ], [ 2674531.56, 2575021.02 ], [ 2673877.29, 2575385.63 ], [ 2673588.33, 2575316.9 ], [ 2673420.36, 2575327.92 ], [ 2672985.57, 2575427.85 ], [ 2672905.35, 2575403.58 ], [ 2672178.96, 2575344.01 ], [ 2671848.21, 2575472.04 ], [ 2671793.4, 2575608.86 ], [ 2671397.79, 2575812.28 ], [ 2671265.67, 2575725.43 ], [ 2670995.67, 2575827.45 ], [ 2670931.71, 2575895.65 ], [ 2670809.34, 2576211.8 ], [ 2670848.37, 2576270.28 ], [ 2670859.65, 2576295.57 ], [ 2670831.18, 2576655.67 ], [ 2671107.57, 2576911.68 ], [ 2670932.58, 2577162.94 ], [ 2670812.52, 2577272.86 ], [ 2670805.56, 2577319.22 ], [ 2670474.06, 2577927.8 ], [ 2670412.74, 2577900.75 ], [ 2670348.03, 2577748.07 ], [ 2670316.29, 2577266.79 ], [ 2670187.26, 2577145.74 ], [ 2670170.61, 2577135.84 ], [ 2670061.47, 2576910.07 ], [ 2669764.2, 2577139.24 ], [ 2669642.4, 2577123.38 ], [ 2669384.55, 2577246.94 ], [ 2669363.01, 2577237.33 ], [ 2668969.08, 2577527.86 ], [ 2668564.83, 2577368.74 ], [ 2668532.58, 2577336.09 ], [ 2668221.03, 2577304.41 ], [ 2668032.75, 2577137.91 ], [ 2667734.91, 2577119.1 ], [ 2667476.67, 2577461.85 ], [ 2667230.13, 2577577.53 ], [ 2667181.35, 2577641.9 ], [ 2666958.75, 2577820.24 ], [ 2666944.98, 2577823.88 ], [ 2666653.65, 2577978.81 ], [ 2666632.41, 2577999.54 ], [ 2666292.48, 2578014.09 ], [ 2665918.17, 2578255.03 ], [ 2665661.49, 2578335.22 ], [ 2665400.79, 2578325.25 ], [ 2664567.72, 2577786.28 ], [ 2664265.98, 2578069.95 ], [ 2664008.31, 2578402.67 ], [ 2663864.31, 2578672.3 ], [ 2663912.31, 2579179.26 ], [ 2663880.78, 2579272.14 ], [ 2663752.47, 2579502.72 ], [ 2663654.64, 2579617.42 ], [ 2663501.49, 2580195.05 ], [ 2663459.04, 2580262.14 ], [ 2663395.89, 2580474.15 ], [ 2663436.72, 2580726.26 ], [ 2663429.52, 2580775.62 ], [ 2663101.83, 2581366.15 ], [ 2663292.33, 2581504.02 ], [ 2663296.11, 2581507.55 ], [ 2663391.09, 2581828.61 ], [ 2663337.72, 2582024.16 ], [ 2663193.33, 2582174.49 ], [ 2662799.73, 2582324.53 ], [ 2662783.62, 2582406.21 ], [ 2662782.21, 2582414.28 ], [ 2662783.47, 2582440.74 ], [ 2662701.75, 2582973.0 ], [ 2662415.64, 2583448.32 ], [ 2662312.5, 2583558.66 ], [ 2662207.32, 2583631.09 ], [ 2662123.26, 2583703.45 ], [ 2662072.17, 2583821.68 ], [ 2660960.01, 2583248.26 ], [ 2660861.22, 2583082.01 ], [ 2660921.76, 2582746.5 ], [ 2661032.55, 2582659.65 ], [ 2661027.21, 2582294.38 ], [ 2660810.94, 2582149.59 ], [ 2660293.65, 2582309.47 ], [ 2660061.27, 2582199.51 ], [ 2659938.0, 2582322.51 ], [ 2659860.39, 2582345.86 ], [ 2659697.76, 2582473.05 ], [ 2659415.79, 2582527.4 ], [ 2659414.23, 2582529.33 ], [ 2659355.46, 2582932.99 ], [ 2659600.29, 2583274.61 ], [ 2659592.43, 2583994.83 ], [ 2659407.03, 2584125.48 ], [ 2658781.08, 2584400.1 ], [ 2658698.34, 2584481.84 ], [ 2658650.94, 2584527.75 ], [ 2658637.32, 2584545.05 ], [ 2658495.81, 2584544.1 ], [ 2658210.87, 2584629.36 ], [ 2657542.08, 2585151.76 ], [ 2657390.31, 2585253.05 ], [ 2657257.98, 2585425.63 ], [ 2657018.64, 2586243.3 ], [ 2657019.15, 2586244.38 ], [ 2657037.27, 2586340.44 ], [ 2657002.68, 2586812.85 ], [ 2656786.2, 2586865.13 ], [ 2656338.63, 2587089.99 ], [ 2656232.97, 2587503.38 ], [ 2655559.92, 2588055.81 ], [ 2655798.09, 2588472.11 ], [ 2655900.93, 2588823.55 ], [ 2655765.39, 2589024.21 ], [ 2655230.46, 2589414.34 ], [ 2655063.3, 2589614.11 ], [ 2654894.52, 2589628.24 ], [ 2654106.15, 2589199.18 ], [ 2654022.3, 2589180.12 ], [ 2653961.88, 2589180.88 ], [ 2653808.4, 2589242.55 ], [ 2653230.69, 2588537.91 ], [ 2652947.19, 2588745.15 ], [ 2652866.67, 2588764.03 ], [ 2652857.04, 2588761.26 ], [ 2652627.87, 2588598.24 ], [ 2652513.42, 2588442.22 ], [ 2652443.1, 2588415.49 ], [ 2652315.39, 2588429.8 ], [ 2652107.1, 2588601.11 ], [ 2651974.17, 2588550.51 ], [ 2651818.77, 2588773.51 ], [ 2651876.85, 2589135.54 ], [ 2651859.39, 2589172.41 ], [ 2651868.0, 2589675.61 ], [ 2652039.27, 2589821.95 ], [ 2652069.63, 2589878.44 ], [ 2652200.67, 2590018.41 ], [ 2652384.33, 2590258.83 ], [ 2652533.58, 2590602.0 ], [ 2652473.13, 2590748.19 ], [ 2652315.03, 2590956.39 ], [ 2652219.33, 2591169.66 ], [ 2651931.18, 2591559.92 ], [ 2651927.28, 2591563.32 ], [ 2651491.2, 2591717.53 ], [ 2651106.15, 2590676.58 ], [ 2651082.84, 2590654.08 ], [ 2651050.86, 2590645.41 ], [ 2651013.3, 2590652.53 ], [ 2650871.04, 2590812.65 ], [ 2650813.53, 2591215.95 ], [ 2650672.74, 2591244.88 ], [ 2650388.34, 2591137.59 ], [ 2650239.96, 2590965.18 ], [ 2650197.42, 2590947.86 ], [ 2650159.02, 2590922.47 ], [ 2650114.92, 2590849.98 ], [ 2649687.84, 2590736.38 ], [ 2649670.74, 2590740.45 ], [ 2649540.84, 2591261.34 ], [ 2649680.22, 2591391.57 ], [ 2649644.46, 2591653.53 ], [ 2650050.87, 2591775.96 ], [ 2649932.61, 2591984.01 ], [ 2650201.35, 2592314.43 ], [ 2650122.75, 2592421.83 ], [ 2650165.11, 2592660.59 ], [ 2650019.94, 2592835.98 ], [ 2649835.98, 2592841.34 ], [ 2649687.99, 2593041.39 ], [ 2649406.23, 2593063.29 ], [ 2649392.31, 2593054.63 ], [ 2649055.32, 2593142.42 ], [ 2649028.23, 2593189.08 ], [ 2648861.91, 2593278.24 ], [ 2648742.93, 2593497.36 ], [ 2648774.55, 2593544.34 ], [ 2648641.89, 2593868.09 ], [ 2648540.43, 2593857.81 ], [ 2648346.81, 2593885.4 ], [ 2648279.22, 2593960.63 ], [ 2648279.04, 2593978.38 ], [ 2648333.19, 2594091.45 ], [ 2648381.07, 2594130.81 ], [ 2648372.49, 2594443.14 ], [ 2648443.8, 2594554.92 ], [ 2648458.56, 2594564.68 ], [ 2648388.39, 2594693.1 ], [ 2648407.98, 2594899.83 ], [ 2648509.02, 2594943.28 ], [ 2648405.94, 2595109.61 ], [ 2648579.4, 2595312.67 ], [ 2648568.87, 2595323.42 ], [ 2648584.38, 2595493.24 ], [ 2648750.43, 2595677.61 ], [ 2648669.76, 2595728.17 ], [ 2648585.46, 2595909.34 ], [ 2648655.54, 2596095.32 ], [ 2648710.89, 2596056.72 ], [ 2649042.69, 2595964.67 ], [ 2648935.59, 2596327.88 ], [ 2649021.09, 2596413.96 ], [ 2649116.91, 2596333.34 ], [ 2649448.95, 2596175.03 ], [ 2649337.02, 2596599.21 ], [ 2649393.36, 2596629.42 ], [ 2649530.25, 2596532.52 ], [ 2649715.32, 2596460.3 ], [ 2649767.7, 2596603.34 ], [ 2649683.22, 2596816.47 ], [ 2649696.69, 2596833.21 ], [ 2649961.26, 2596767.05 ], [ 2649979.29, 2596763.94 ], [ 2650004.76, 2596761.49 ], [ 2650029.99, 2596909.45 ], [ 2649983.91, 2597010.01 ], [ 2650063.59, 2597074.77 ], [ 2650088.82, 2597264.47 ], [ 2650158.21, 2597316.33 ], [ 2650210.14, 2597499.27 ], [ 2650317.24, 2597562.0 ], [ 2650422.57, 2597485.08 ], [ 2650705.95, 2597603.73 ], [ 2650705.74, 2597630.47 ], [ 2651000.79, 2597774.74 ], [ 2651005.08, 2597790.54 ], [ 2651119.05, 2597833.3 ], [ 2651148.3, 2597874.66 ], [ 2651094.03, 2598082.59 ], [ 2651083.92, 2598088.68 ], [ 2650998.09, 2598209.25 ], [ 2650966.38, 2598200.84 ], [ 2650905.66, 2598324.54 ], [ 2650916.97, 2598336.78 ], [ 2651045.34, 2598354.06 ], [ 2651027.55, 2598373.82 ], [ 2650944.48, 2598411.81 ], [ 2650868.61, 2598433.5 ], [ 2650865.37, 2598429.88 ], [ 2650761.15, 2598357.39 ], [ 2650761.06, 2598357.28 ], [ 2650682.73, 2598358.15 ], [ 2650624.56, 2598580.3 ], [ 2650431.84, 2598595.68 ], [ 2650349.97, 2598876.93 ], [ 2650204.05, 2598895.88 ], [ 2650076.49, 2599326.47 ], [ 2650172.19, 2599378.29 ], [ 2650493.79, 2599328.67 ], [ 2650523.49, 2599298.76 ], [ 2650804.77, 2599261.17 ], [ 2650857.57, 2599302.24 ], [ 2651255.55, 2599252.05 ], [ 2651310.51, 2599653.36 ], [ 2651546.55, 2599828.49 ], [ 2651546.82, 2599830.54 ], [ 2651776.17, 2600004.75 ], [ 2651834.01, 2600411.9 ], [ 2651654.46, 2600649.87 ], [ 2651681.55, 2600844.55 ], [ 2651679.21, 2600851.57 ], [ 2650873.29, 2600955.61 ], [ 2650922.58, 2601355.53 ], [ 2650925.25, 2601359.42 ], [ 2650952.43, 2601569.51 ], [ 2650777.83, 2601791.34 ], [ 2650368.6, 2601844.68 ], [ 2650424.13, 2602252.67 ], [ 2650832.97, 2602198.29 ], [ 2651056.95, 2602365.21 ], [ 2651085.54, 2602578.53 ], [ 2651085.48, 2602578.75 ], [ 2651139.42, 2602985.64 ], [ 2651140.02, 2602986.47 ], [ 2651167.95, 2603199.48 ], [ 2651393.37, 2603367.93 ], [ 2651439.3, 2603722.01 ], [ 2651043.36, 2603774.11 ], [ 2651079.24, 2604070.69 ], [ 2651082.93, 2604074.52 ], [ 2651114.28, 2604291.99 ], [ 2650889.49, 2604476.46 ], [ 2650860.15, 2604931.08 ], [ 2650889.76, 2605032.32 ], [ 2650850.31, 2605206.61 ], [ 2650862.97, 2605268.43 ], [ 2650951.65, 2605479.38 ], [ 2651203.05, 2605696.45 ], [ 2651296.14, 2605833.9 ] ] ] } },
{ "type": "Feature", "properties": { "School_Name": "Tarneit Senior College", "Campus_Name": "Tarneit Senior College", "ENTITY_CODE": 1885401, "Year_Level": "10 to 12", "Boundary_Year": "2020" }, "geometry": { "type": "Polygon", "coordinates": [ [ [ 2472089.31, 2405781.3 ], [ 2467434.57, 2406635.22 ], [ 2464127.4, 2412256.2 ], [ 2468251.29, 2415098.11 ], [ 2473757.1, 2412366.21 ], [ 2475752.16, 2412061.42 ], [ 2477229.93, 2411368.78 ], [ 2479001.64, 2409288.07 ], [ 2477119.29, 2404661.43 ], [ 2475868.92, 2404138.77 ], [ 2474571.3, 2404885.67 ], [ 2472993.27, 2404866.24 ], [ 2472089.31, 2405781.3 ] ] ] } },
{ "type": "Feature", "properties": { "School_Name": "Point Cook Senior Secondary College", "Campus_Name": "Point Cook Senior Secondary College", "ENTITY_CODE": 1884701, "Year_Level": "10 to 12", "Boundary_Year": "2020" }, "geometry": { "type": "Polygon", "coordinates": [ [ [ 2473867.2, 2394910.92 ], [ 2473460.67, 2399587.09 ], [ 2473168.35, 2400673.69 ], [ 2475487.53, 2403060.0 ], [ 2475868.92, 2404138.77 ], [ 2477119.29, 2404661.43 ], [ 2480592.75, 2401832.19 ], [ 2481502.92, 2401337.99 ], [ 2482402.2, 2399784.03 ], [ 2482237.38, 2399431.82 ], [ 2482265.61, 2398622.88 ], [ 2476941.51, 2400038.59 ], [ 2473867.2, 2394910.92 ] ] ] } },
{ "type": "Feature", "properties": { "School_Name": "Bendigo Senior Secondary College", "Campus_Name": "Bendigo Senior Secondary College", "ENTITY_CODE": 1759501, "Year_Level": "11 to 12", "Boundary_Year": "2020" }, "geometry": { "type": "Polygon", "coordinates": [ [ [ 2438417.91, 2508576.07 ], [ 2408992.41, 2508890.82 ], [ 2394876.21, 2531190.84 ], [ 2399574.36, 2537608.13 ], [ 2402382.48, 2542538.43 ], [ 2448682.83, 2555865.53 ], [ 2450892.99, 2553766.17 ], [ 2468932.92, 2538822.19 ], [ 2472260.7, 2526653.95 ], [ 2476358.31, 2514508.61 ], [ 2473299.45, 2506278.32 ], [ 2463680.61, 2503606.05 ], [ 2438417.91, 2508576.07 ] ] ] } },
{ "type": "Feature", "properties": { "School_Name": "Mildura Senior College", "Campus_Name": "Mildura Senior College", "ENTITY_CODE": 1804501, "Year_Level": "11 to 12", "Boundary_Year": "2020" }, "geometry": { "type": "Polygon", "coordinates": [ [ [ 2243584.92, 2808823.24 ], [ 2244012.27, 2808127.76 ], [ 2244050.04, 2808378.84 ], [ 2244210.81, 2808247.59 ], [ 2244270.9, 2808198.53 ], [ 2244295.08, 2807945.45 ], [ 2244409.71, 2806745.26 ], [ 2244409.11, 2806751.52 ], [ 2244414.33, 2806696.71 ], [ 2244464.73, 2806169.04 ], [ 2244466.53, 2806150.26 ], [ 2244670.05, 2806180.55 ], [ 2245108.95, 2806245.86 ], [ 2245123.38, 2806625.25 ], [ 2245754.37, 2806049.97 ], [ 2245815.03, 2805306.91 ], [ 2245077.33, 2804386.68 ], [ 2245860.0, 2803559.13 ], [ 2245907.67, 2802036.93 ], [ 2245818.6, 2801983.58 ], [ 2245050.99, 2801523.66 ], [ 2244856.17, 2800926.41 ], [ 2245844.85, 2800570.34 ], [ 2245947.72, 2800447.05 ], [ 2245778.55, 2800234.64 ], [ 2245663.74, 2799796.53 ], [ 2245508.88, 2799803.39 ], [ 2245451.1, 2799817.83 ], [ 2245350.6, 2799866.13 ], [ 2245145.16, 2799862.66 ], [ 2245113.21, 2799847.11 ], [ 2244589.89, 2799819.87 ], [ 2244467.01, 2799951.47 ], [ 2244229.08, 2799909.3 ], [ 2244120.81, 2800167.54 ], [ 2244195.93, 2800295.24 ], [ 2244116.61, 2800400.7 ], [ 2244141.72, 2800496.7 ], [ 2244227.82, 2800680.03 ], [ 2244000.03, 2800815.26 ], [ 2243954.76, 2801026.29 ], [ 2243934.66, 2801042.6 ], [ 2243762.4, 2800998.66 ], [ 2243725.35, 2800568.47 ], [ 2243481.6, 2800537.83 ], [ 2243465.04, 2800509.3 ], [ 2243219.82, 2800471.23 ], [ 2243016.12, 2800253.12 ], [ 2243016.3, 2800166.58 ], [ 2242829.34, 2799978.54 ], [ 2242812.3, 2799874.11 ], [ 2242739.85, 2799841.61 ], [ 2242716.6, 2799817.92 ], [ 2242363.56, 2799780.49 ], [ 2242347.69, 2799581.18 ], [ 2242231.29, 2799512.18 ], [ 2242230.45, 2799506.41 ], [ 2242368.33, 2799301.38 ], [ 2242288.08, 2799156.81 ], [ 2242274.1, 2799156.24 ], [ 2242191.3, 2799184.26 ], [ 2242171.53, 2799164.66 ], [ 2242048.5, 2799121.23 ], [ 2242032.24, 2799096.06 ], [ 2242074.9, 2799018.24 ], [ 2241918.06, 2798945.3 ], [ 2241757.02, 2799085.89 ], [ 2241817.53, 2799114.42 ], [ 2241980.61, 2799322.38 ], [ 2241917.55, 2799378.16 ], [ 2241645.0, 2799319.17 ], [ 2241571.59, 2799151.97 ], [ 2241518.1, 2799145.29 ], [ 2241434.55, 2799208.02 ], [ 2241360.36, 2799372.99 ], [ 2241108.69, 2799365.26 ], [ 2241003.48, 2799586.2 ], [ 2240984.79, 2799593.81 ], [ 2240887.56, 2799524.61 ], [ 2240599.14, 2799470.4 ], [ 2240515.23, 2799532.83 ], [ 2240366.13, 2799479.53 ], [ 2240235.15, 2799412.8 ], [ 2240230.68, 2799397.89 ], [ 2240089.98, 2799098.85 ], [ 2240006.01, 2799086.36 ], [ 2239852.74, 2799242.34 ], [ 2239473.48, 2799230.74 ], [ 2239455.39, 2799018.75 ], [ 2239231.89, 2798915.64 ], [ 2239223.55, 2798905.22 ], [ 2238904.62, 2798895.93 ], [ 2238914.76, 2798565.03 ], [ 2238837.3, 2798495.55 ], [ 2238830.91, 2798495.43 ], [ 2238609.33, 2798302.43 ], [ 2238530.4, 2798337.56 ], [ 2238349.41, 2798319.53 ], [ 2238266.04, 2798393.58 ], [ 2238171.87, 2798403.74 ], [ 2238152.19, 2798409.47 ], [ 2238138.27, 2798415.56 ], [ 2237961.51, 2798101.58 ], [ 2237871.36, 2798057.15 ], [ 2237849.16, 2798083.26 ], [ 2237800.56, 2798149.41 ], [ 2237529.42, 2798154.09 ], [ 2237508.9, 2798142.56 ], [ 2237424.39, 2798148.6 ], [ 2237364.84, 2798118.76 ], [ 2237214.51, 2798148.99 ], [ 2237194.56, 2798160.0 ], [ 2236933.23, 2798036.84 ], [ 2236923.48, 2797911.06 ], [ 2236910.58, 2797897.22 ], [ 2236882.56, 2797727.74 ], [ 2236896.75, 2797581.81 ], [ 2237030.82, 2797413.28 ], [ 2236687.74, 2797329.08 ], [ 2236556.94, 2797498.55 ], [ 2236523.67, 2797513.58 ], [ 2236499.16, 2797499.09 ], [ 2236412.61, 2797480.31 ], [ 2236384.59, 2797467.06 ], [ 2236140.99, 2797414.07 ], [ 2236077.96, 2797383.57 ], [ 2236047.09, 2797326.28 ], [ 2236085.73, 2797105.61 ], [ 2236080.36, 2797058.88 ], [ 2235961.77, 2796942.36 ], [ 2235883.89, 2796930.96 ], [ 2235603.45, 2797107.28 ], [ 2235423.6, 2797438.86 ], [ 2235362.43, 2797434.72 ], [ 2235247.05, 2797343.16 ], [ 2234950.5, 2797352.25 ], [ 2234696.7, 2797084.68 ], [ 2234724.63, 2796879.72 ], [ 2234628.6, 2796753.66 ], [ 2234454.72, 2796673.23 ], [ 2234355.66, 2796633.43 ], [ 2234349.57, 2796583.53 ], [ 2234137.59, 2796100.91 ], [ 2234133.03, 2796093.91 ], [ 2234167.62, 2795959.78 ], [ 2233919.25, 2795562.22 ], [ 2233961.04, 2795341.32 ], [ 2233949.55, 2795274.95 ], [ 2233555.44, 2795035.14 ], [ 2233471.89, 2794995.36 ], [ 2233414.23, 2794907.34 ], [ 2233355.13, 2794848.27 ], [ 2233155.36, 2794805.95 ], [ 2233145.85, 2794808.43 ], [ 2232450.93, 2794674.48 ], [ 2232341.4, 2794758.01 ], [ 2232201.93, 2794974.06 ], [ 2232192.36, 2795019.62 ], [ 2232316.89, 2795266.58 ], [ 2232319.47, 2795291.52 ], [ 2232023.43, 2795622.32 ], [ 2231861.82, 2795571.96 ], [ 2231801.85, 2795621.73 ], [ 2231710.98, 2795481.03 ], [ 2231635.83, 2795547.01 ], [ 2231634.96, 2795551.86 ], [ 2231550.03, 2795664.14 ], [ 2231544.09, 2795689.32 ], [ 2231480.07, 2795692.56 ], [ 2231323.68, 2795688.06 ], [ 2231214.33, 2795823.26 ], [ 2231045.22, 2795976.83 ], [ 2231031.09, 2795949.9 ], [ 2230657.77, 2795605.32 ], [ 2230326.69, 2795845.76 ], [ 2230289.04, 2795806.02 ], [ 2230208.64, 2795523.3 ], [ 2229851.31, 2795478.84 ], [ 2229784.35, 2795415.05 ], [ 2229797.94, 2795195.01 ], [ 2229534.27, 2795051.72 ], [ 2229368.58, 2795096.1 ], [ 2229312.12, 2795084.1 ], [ 2229119.82, 2794840.38 ], [ 2228867.97, 2795098.55 ], [ 2228853.18, 2795098.45 ], [ 2228754.96, 2795013.66 ], [ 2228934.51, 2794693.78 ], [ 2228888.85, 2794677.56 ], [ 2228783.67, 2794452.62 ], [ 2229019.74, 2794366.64 ], [ 2229023.31, 2794189.41 ], [ 2229107.85, 2794113.45 ], [ 2229024.96, 2793838.14 ], [ 2229160.59, 2793638.79 ], [ 2229081.09, 2793525.72 ], [ 2228743.08, 2793483.51 ], [ 2228742.48, 2793480.48 ], [ 2229127.05, 2793147.57 ], [ 2229131.67, 2793125.33 ], [ 2228659.71, 2793075.76 ], [ 2228613.99, 2793073.97 ], [ 2228284.62, 2792847.42 ], [ 2228260.2, 2792731.68 ], [ 2228265.18, 2792671.16 ], [ 2228112.63, 2792081.79 ], [ 2228005.26, 2791897.77 ], [ 2227663.35, 2791825.43 ], [ 2227394.79, 2791840.35 ], [ 2227294.02, 2791822.5 ], [ 2227170.18, 2791833.8 ], [ 2227040.34, 2791815.32 ], [ 2226590.28, 2792215.61 ], [ 2226576.99, 2792246.43 ], [ 2225933.52, 2792743.83 ], [ 2225874.54, 2792602.51 ], [ 2225691.99, 2792417.63 ], [ 2225608.02, 2792429.61 ], [ 2225025.39, 2792613.06 ], [ 2224982.34, 2792546.84 ], [ 2224787.34, 2792284.83 ], [ 2224344.33, 2792039.41 ], [ 2224280.19, 2791977.32 ], [ 2224261.11, 2791989.35 ], [ 2222706.75, 2791940.97 ], [ 2222691.57, 2791948.1 ], [ 2222581.8, 2792052.97 ], [ 2222541.81, 2792052.09 ], [ 2222180.49, 2791940.49 ], [ 2222116.62, 2791941.56 ], [ 2221725.51, 2791821.15 ], [ 2221600.95, 2791829.16 ], [ 2221215.18, 2791707.59 ], [ 2221121.76, 2791719.06 ], [ 2220898.38, 2791649.36 ], [ 2220733.44, 2791398.12 ], [ 2220239.1, 2791292.24 ], [ 2220058.02, 2791470.84 ], [ 2219733.21, 2791610.51 ], [ 2219612.04, 2791753.03 ], [ 2219219.73, 2792064.72 ], [ 2219134.53, 2792176.85 ], [ 2218765.98, 2792517.96 ], [ 2218730.85, 2792542.76 ], [ 2218589.94, 2792682.81 ], [ 2218582.95, 2792856.08 ], [ 2218576.62, 2792895.65 ], [ 2218571.34, 2793053.33 ], [ 2218432.59, 2793197.2 ], [ 2217915.75, 2793576.48 ], [ 2217407.73, 2793792.21 ], [ 2216914.35, 2793846.43 ], [ 2216438.37, 2793746.55 ], [ 2215915.41, 2793464.34 ], [ 2215579.32, 2793171.05 ], [ 2215570.92, 2792997.47 ], [ 2215593.72, 2792796.81 ], [ 2215585.71, 2792548.49 ], [ 2215605.96, 2792392.74 ], [ 2215605.33, 2792353.17 ], [ 2215420.59, 2792153.58 ], [ 2215335.69, 2792091.24 ], [ 2214927.18, 2791642.68 ], [ 2214901.2, 2791628.25 ], [ 2214479.94, 2791165.68 ], [ 2214495.48, 2790691.4 ], [ 2214971.82, 2790281.28 ], [ 2215014.96, 2790207.68 ], [ 2213549.13, 2790156.06 ], [ 2213601.57, 2790257.18 ], [ 2214038.88, 2790675.32 ], [ 2214024.93, 2791151.49 ], [ 2213588.22, 2791562.72 ], [ 2213563.98, 2791539.14 ], [ 2213120.34, 2791337.2 ], [ 2212891.2, 2791348.31 ], [ 2212675.26, 2791141.72 ], [ 2212224.72, 2791123.18 ], [ 2211932.76, 2791361.33 ], [ 2211690.69, 2791416.0 ], [ 2211674.58, 2791426.43 ], [ 2211604.77, 2791842.43 ], [ 2211673.83, 2792179.16 ], [ 2211890.16, 2792260.41 ], [ 2211911.07, 2792278.1 ], [ 2212030.47, 2792689.68 ], [ 2212498.23, 2792963.68 ], [ 2212701.75, 2793010.28 ], [ 2212953.12, 2793358.29 ], [ 2212725.51, 2793432.59 ], [ 2212449.27, 2793594.9 ], [ 2211962.4, 2793580.97 ], [ 2211738.45, 2793222.38 ], [ 2211626.61, 2793204.87 ], [ 2211600.54, 2793212.68 ], [ 2211265.38, 2793020.43 ], [ 2211194.64, 2793033.05 ], [ 2210950.98, 2793216.06 ], [ 2210938.59, 2793233.19 ], [ 2210882.31, 2793244.49 ], [ 2210752.23, 2793368.1 ], [ 2210722.83, 2793987.8 ], [ 2210468.01, 2794276.49 ], [ 2210352.45, 2794345.91 ], [ 2209944.54, 2794749.49 ], [ 2209905.06, 2794776.03 ], [ 2209788.63, 2794884.95 ], [ 2209630.38, 2794891.74 ], [ 2209481.1, 2794872.08 ], [ 2209432.62, 2794872.87 ], [ 2209186.86, 2795096.28 ], [ 2209063.83, 2795264.19 ], [ 2208715.23, 2795561.91 ], [ 2208586.56, 2795773.05 ], [ 2208636.42, 2796848.34 ], [ 2208604.77, 2796863.07 ], [ 2208108.27, 2796852.91 ], [ 2208053.22, 2796824.3 ], [ 2207689.2, 2796791.91 ], [ 2207628.48, 2796806.93 ], [ 2207360.4, 2796754.31 ], [ 2207129.73, 2796790.55 ], [ 2206974.57, 2796745.37 ], [ 2206757.67, 2796759.35 ], [ 2206630.53, 2796801.22 ], [ 2206615.83, 2797473.22 ], [ 2206857.12, 2797608.26 ], [ 2207106.36, 2797487.51 ], [ 2207585.16, 2797754.19 ], [ 2207887.59, 2798267.07 ], [ 2207862.72, 2798338.8 ], [ 2207815.11, 2798364.47 ], [ 2207401.71, 2798482.07 ], [ 2207042.73, 2798486.51 ], [ 2206893.36, 2798444.57 ], [ 2206833.12, 2798404.8 ], [ 2206514.22, 2798338.14 ], [ 2206342.53, 2798224.76 ], [ 2206091.04, 2798202.18 ], [ 2205913.56, 2798085.08 ], [ 2205646.56, 2798096.01 ], [ 2205531.15, 2798254.14 ], [ 2205452.28, 2798382.51 ], [ 2205616.38, 2798724.32 ], [ 2205566.91, 2798777.26 ], [ 2205015.42, 2798772.63 ], [ 2204730.33, 2798493.7 ], [ 2204466.66, 2798561.49 ], [ 2203944.48, 2798479.77 ], [ 2203521.39, 2798264.67 ], [ 2203381.29, 2798288.55 ], [ 2203903.59, 2800627.99 ], [ 2203853.04, 2800699.29 ], [ 2203552.02, 2800778.12 ], [ 2203411.74, 2800790.61 ], [ 2203093.74, 2800877.04 ], [ 2202927.42, 2800893.47 ], [ 2202787.8, 2800932.8 ], [ 2202721.62, 2801008.14 ], [ 2202672.81, 2801088.78 ], [ 2202326.13, 2801479.08 ], [ 2202290.97, 2801546.46 ], [ 2201942.4, 2801931.75 ], [ 2201917.29, 2802001.49 ], [ 2201562.75, 2802399.84 ], [ 2201706.69, 2802999.2 ], [ 2202038.22, 2803261.05 ], [ 2202087.72, 2803399.71 ], [ 2202091.26, 2803485.99 ], [ 2202238.05, 2803887.93 ], [ 2202248.52, 2803988.97 ], [ 2200309.95, 2803928.72 ], [ 2200341.99, 2803743.8 ], [ 2200471.89, 2803436.61 ], [ 2200528.35, 2802936.27 ], [ 2200472.49, 2802643.77 ], [ 2200403.46, 2802357.33 ], [ 2200164.12, 2801900.06 ], [ 2199822.75, 2801475.63 ], [ 2199571.77, 2801446.5 ], [ 2199107.4, 2802888.51 ], [ 2198955.63, 2803075.95 ], [ 2198885.67, 2803265.57 ], [ 2198626.86, 2803547.28 ], [ 2198606.04, 2803602.51 ], [ 2198314.17, 2803930.98 ], [ 2198273.7, 2803953.47 ], [ 2197994.1, 2804262.72 ], [ 2197956.66, 2804287.8 ], [ 2197962.42, 2804498.15 ], [ 2197114.95, 2805499.59 ], [ 2197285.5, 2805592.76 ], [ 2197366.05, 2806659.86 ], [ 2197400.16, 2806664.73 ], [ 2197750.68, 2806530.57 ], [ 2198006.4, 2806611.21 ], [ 2198109.15, 2807464.38 ], [ 2198065.89, 2807644.51 ], [ 2198047.71, 2807675.99 ], [ 2197970.4, 2807986.95 ], [ 2197606.65, 2807997.91 ], [ 2197159.44, 2808333.86 ], [ 2196979.77, 2808637.89 ], [ 2196948.63, 2809130.25 ], [ 2196979.8, 2809209.36 ], [ 2196506.67, 2809567.53 ], [ 2196543.57, 2809887.39 ], [ 2196366.51, 2810052.16 ], [ 2196043.74, 2810081.93 ], [ 2196056.28, 2810213.57 ], [ 2195736.75, 2810907.11 ], [ 2195916.39, 2811205.01 ], [ 2195954.4, 2811363.24 ], [ 2195908.74, 2811456.12 ], [ 2195832.33, 2811547.34 ], [ 2195734.59, 2811781.23 ], [ 2195696.7, 2812135.02 ], [ 2195756.4, 2812436.55 ], [ 2195743.68, 2812560.51 ], [ 2195751.63, 2812601.88 ], [ 2195836.83, 2812962.3 ], [ 2196023.01, 2813064.06 ], [ 2196042.0, 2813094.59 ], [ 2196268.59, 2813350.99 ], [ 2196232.53, 2813917.65 ], [ 2196352.77, 2813962.95 ], [ 2196577.92, 2814133.93 ], [ 2196590.67, 2814195.57 ], [ 2196254.22, 2814287.67 ], [ 2196032.34, 2814137.09 ], [ 2196031.26, 2814137.3 ], [ 2195849.07, 2814040.58 ], [ 2195740.77, 2814035.46 ], [ 2195551.47, 2814205.56 ], [ 2195357.94, 2814145.59 ], [ 2195165.61, 2814282.21 ], [ 2194868.55, 2814027.97 ], [ 2194600.38, 2814017.19 ], [ 2194504.98, 2813929.72 ], [ 2194553.58, 2813637.32 ], [ 2194540.8, 2813500.07 ], [ 2194532.82, 2813475.95 ], [ 2194548.18, 2813159.51 ], [ 2194480.98, 2812936.89 ], [ 2194351.35, 2812743.56 ], [ 2194245.72, 2812616.04 ], [ 2193751.05, 2812867.11 ], [ 2193596.46, 2812877.66 ], [ 2193307.41, 2812691.6 ], [ 2193093.54, 2812618.56 ], [ 2192982.12, 2812515.9 ], [ 2192675.94, 2812361.94 ], [ 2192549.19, 2812224.72 ], [ 2192301.54, 2812056.38 ], [ 2192220.45, 2812005.26 ], [ 2192041.05, 2811916.99 ], [ 2191992.54, 2811809.74 ], [ 2192045.73, 2811436.29 ], [ 2191824.75, 2811154.07 ], [ 2191488.69, 2810901.75 ], [ 2191353.84, 2810724.91 ], [ 2191176.09, 2810613.75 ], [ 2190895.14, 2810557.45 ], [ 2190893.58, 2810558.25 ], [ 2190423.93, 2811185.24 ], [ 2190378.81, 2811199.43 ], [ 2190049.29, 2810973.51 ], [ 2189773.08, 2810524.26 ], [ 2189747.34, 2810421.74 ], [ 2189841.54, 2810093.81 ], [ 2189818.5, 2809620.47 ], [ 2189878.08, 2809445.34 ], [ 2189507.94, 2809010.67 ], [ 2188800.36, 2808513.48 ], [ 2188550.37, 2808122.78 ], [ 2188439.85, 2808148.97 ], [ 2187715.59, 2808196.53 ], [ 2186727.57, 2808439.02 ], [ 2186605.8, 2808488.7 ], [ 2186502.45, 2808544.37 ], [ 2185991.64, 2807640.12 ], [ 2186146.26, 2807126.04 ], [ 2185640.25, 2807077.51 ], [ 2185296.45, 2807679.6 ], [ 2186535.78, 2808606.18 ], [ 2186292.21, 2809762.71 ], [ 2185898.37, 2810050.01 ], [ 2185126.29, 2809744.24 ], [ 2184682.95, 2810426.4 ], [ 2185780.68, 2810132.31 ], [ 2186625.69, 2810780.88 ], [ 2187405.84, 2809953.38 ], [ 2187972.66, 2810061.15 ], [ 2188120.17, 2810852.09 ], [ 2187219.96, 2811891.11 ], [ 2187585.54, 2811921.35 ], [ 2188197.84, 2811225.16 ], [ 2188827.69, 2811263.4 ], [ 2189118.27, 2811795.68 ], [ 2188867.35, 2812768.5 ], [ 2189067.3, 2813961.57 ], [ 2191172.7, 2814599.4 ], [ 2193106.14, 2816336.61 ], [ 2194233.66, 2816266.2 ], [ 2194575.66, 2816647.28 ], [ 2195983.29, 2816928.3 ], [ 2196700.92, 2814853.23 ], [ 2197404.75, 2815210.22 ], [ 2197969.71, 2816015.47 ], [ 2197554.15, 2817333.33 ], [ 2198082.75, 2817637.93 ], [ 2199491.13, 2816307.15 ], [ 2200008.06, 2816385.74 ], [ 2200540.47, 2817033.27 ], [ 2200924.92, 2816971.03 ], [ 2200065.03, 2815955.1 ], [ 2200401.24, 2815388.7 ], [ 2201040.12, 2815499.4 ], [ 2202465.63, 2816580.9 ], [ 2202151.71, 2815304.95 ], [ 2202370.14, 2814896.06 ], [ 2203243.11, 2815524.63 ], [ 2208410.13, 2813390.51 ], [ 2209296.33, 2814281.18 ], [ 2209424.85, 2813573.88 ], [ 2210855.19, 2813885.72 ], [ 2211771.0, 2812681.85 ], [ 2212171.17, 2812966.02 ], [ 2211908.91, 2813054.39 ], [ 2211956.07, 2813585.53 ], [ 2212692.42, 2814319.64 ], [ 2212380.06, 2815545.51 ], [ 2213917.38, 2815960.98 ], [ 2215018.23, 2815516.43 ], [ 2215760.4, 2815673.45 ], [ 2216533.32, 2814361.38 ], [ 2216160.75, 2813410.85 ], [ 2216750.31, 2813041.35 ], [ 2217348.06, 2813273.55 ], [ 2217417.54, 2814791.85 ], [ 2218021.23, 2815171.62 ], [ 2219072.76, 2813810.95 ], [ 2219608.62, 2813358.05 ], [ 2220159.78, 2813335.74 ], [ 2220513.84, 2813717.2 ], [ 2220156.54, 2814941.22 ], [ 2220648.6, 2815911.7 ], [ 2221463.85, 2816047.64 ], [ 2222287.95, 2815095.48 ], [ 2222727.57, 2815444.4 ], [ 2224171.5, 2814699.27 ], [ 2224896.39, 2814693.15 ], [ 2225258.31, 2815187.6 ], [ 2224505.22, 2815611.6 ], [ 2224130.91, 2816919.57 ], [ 2225379.78, 2816820.83 ], [ 2226353.97, 2817621.78 ], [ 2226822.0, 2816991.65 ], [ 2225678.37, 2815535.79 ], [ 2225697.45, 2815182.56 ], [ 2225726.82, 2814638.33 ], [ 2226064.38, 2814472.22 ], [ 2226199.47, 2814405.74 ], [ 2226455.91, 2814279.53 ], [ 2227544.4, 2814787.51 ], [ 2228765.13, 2814786.81 ], [ 2229976.17, 2814220.44 ], [ 2230164.3, 2813435.58 ], [ 2230179.54, 2813371.95 ], [ 2230124.13, 2813333.04 ], [ 2229224.07, 2812701.12 ], [ 2229104.91, 2812091.88 ], [ 2230244.79, 2811354.22 ], [ 2230768.08, 2809529.82 ], [ 2231771.52, 2809766.67 ], [ 2232824.88, 2809157.73 ], [ 2234014.89, 2809434.7 ], [ 2234206.65, 2809479.33 ], [ 2234187.33, 2811477.86 ], [ 2235859.02, 2811181.26 ], [ 2236382.16, 2812205.76 ], [ 2236862.61, 2812439.03 ], [ 2238430.89, 2812028.63 ], [ 2237852.73, 2810008.51 ], [ 2237952.84, 2809828.88 ], [ 2238072.03, 2809615.07 ], [ 2238576.75, 2808709.53 ], [ 2238916.11, 2808645.35 ], [ 2239808.22, 2808802.26 ], [ 2240064.15, 2809603.61 ], [ 2241574.68, 2808769.93 ], [ 2243387.1, 2809145.2 ], [ 2243584.92, 2808823.24 ] ] ] } },
{ "type": "Feature", "properties": { "School_Name": "Lakeview Senior College", "Campus_Name": "Lakeview Senior College", "ENTITY_CODE": 1891001, "Year_Level": "10 to 12", "Boundary_Year": "2020" }, "geometry": { "type": "Polygon", "coordinates": [ [ [ 2478097.5, 2420102.91 ], [ 2478186.36, 2420059.24 ], [ 2478456.63, 2417724.22 ], [ 2478646.02, 2417386.2 ], [ 2475752.16, 2412061.42 ], [ 2473757.1, 2412366.21 ], [ 2468251.29, 2415098.11 ], [ 2469120.93, 2418206.82 ], [ 2469380.64, 2419572.61 ], [ 2470990.41, 2418382.09 ], [ 2471761.17, 2418070.34 ], [ 2471860.89, 2418030.0 ], [ 2471949.09, 2418060.63 ], [ 2476956.3, 2419799.1 ], [ 2477985.39, 2419630.69 ], [ 2478050.61, 2420019.6 ], [ 2478097.5, 2420102.91 ] ] ] } }
]
}
